Rochelle Rafn Portfolio - Archive-Product-Mix-2017-2019
…
archive_monthly_mix_ALL <- rbind(archive_monthly_mix_2019, archive_monthly_mix_2018, archive_monthly_mix_2017) 

archive_monthly_mix_ALL %>%
  arrange(Month, Year)

# A tibble: 36 × 3
   Month      Total Year 
   <fct>      <dbl> <chr>
 1 January   50828. 2017 
 2 January   88685. 2018 
 3 January  102816. 2019 
 4 February  52611. 2017 
 5 February  69002. 2018 
 6 February  77863. 2019 
 7 March     60161. 2017 
 8 March     74728. 2018 
 9 March     94411. 2019 
10 April     62712. 2017 
# ℹ 26 more rows
…
archive_mix_categories <- archive_mix_2017_2019_ALL %>%
  group_by(Year) %>%
  count(Category) %>%
  arrange(desc(n))

archive_mix_categories 

# A tibble: 65 × 3
# Groups:   Year [3]
   Year  Category      n
   <chr> <chr>     <int>
 1 2018  spirits    8093
 2 2019  spirits    8091
 3 2017  spirits    8088
 4 2019  dinner     3686
 5 2018  dinner     3668
 6 2017  dinner     3644
 7 2018  cocktails  1977
 8 2019  cocktails  1959
 9 2017  cocktails  1911
10 2018  speakeasy  1477
# ℹ 55 more rows
…
