Rochelle Rafn Portfolio - Men’s 100m Dash Over 100 Years
…
Warning in countrycode_convert(sourcevar = sourcevar, origin = origin, destination = dest, : Some values were not matched unambiguously: Australasia, British West Indies, Czechoslovakia, East Germany, Malaya, Netherlands Antilles, South Yemen, Unified Team, Virgin Islands, Yugoslavia

Show Code

mens_100m_ncodes <- mens_100m_nations %>%
  add_column('Country Code' = country_code)

Show Code

mens_100m_ncodes %>%
  group_by(Nation)%>%
  filter(is.na(`Country Code`))

# A tibble: 78 × 5
# Groups:   Nation [10]
    Year Nation          Time Rank  `Country Code`
   <int> <chr>          <dbl> <chr> <chr>         
 1  1912 Australasia     11   1     <NA>          
 2  1924 Czechoslovakia  11.6 5     <NA>          
 3  1924 Czechoslovakia  11.3 3     <NA>          
 4  1928 Czechoslovakia  11.3 3     <NA>          
 5  1932 Czechoslovakia  11.2 3     <NA>          
 6  1932 Czechoslovakia  11.1 4     <NA>          
 7  1936 Yugoslavia      11.5 5     <NA>          
 8  1952 Czechoslovakia  11.2 4     <NA>          
 9  1952 Czechoslovakia  11.2 4     <NA>          
10  1952 Czechoslovakia  11.3 4     <NA>          
# ℹ 68 more rows
…
