Rochelle Rafn Portfolio - Oregon Liquor Sales
…
Show Code

or_liquor_sales_y <- or_liquor_sales %>%
  group_by(Year, Month) %>%
  summarize(Sales = sum(Sales))

`summarise()` has grouped output by 'Year'. You can override using the
`.groups` argument.

Show Code

or_liquor_sales_y

# A tibble: 111 × 3
# Groups:   Year [10]
   Year  Month         Sales
   <chr> <fct>         <dbl>
 1 2014  January   30849748.
 2 2014  February  31072157.
 3 2014  March     33742554.
 4 2014  April     32509760.
 5 2014  May       37756876.
 6 2014  June      35507349.
 7 2014  July      39942522.
 8 2014  August    40960211.
 9 2014  September 36401452.
10 2014  October   42139835.
# ℹ 101 more rows
…
Show Code

or_liquor_sales_y <- or_liquor_sales %>%
  group_by(Year, Month) %>%
  summarize(sum(Sales)) %>%
  rename("Sales" = "sum(Sales)")

`summarise()` has grouped output by 'Year'. You can override using the
`.groups` argument.

Show Code

or_liquor_sales_y

# A tibble: 111 × 3
# Groups:   Year [10]
   Year  Month         Sales
   <chr> <fct>         <dbl>
 1 2014  January   30849748.
 2 2014  February  31072157.
 3 2014  March     33742554.
 4 2014  April     32509760.
 5 2014  May       37756876.
 6 2014  June      35507349.
 7 2014  July      39942522.
 8 2014  August    40960211.
 9 2014  September 36401452.
10 2014  October   42139835.
# ℹ 101 more rows
…
